id,name,username,state,avatar_url,web_url,email,last_activity_on
4729025,rahul m,rahulm1609,active,https://secure.gravatar.com/avatar/877179483525780736568198c5c78f46?s=80&d=identicon,https://gitlab.com/rahulm1609,,2019-10-03
3502251,Samriddhi Pendhari,SamriddhiPendhari,active,https://secure.gravatar.com/avatar/56531df243d55e69a4e6a199ba94476f?s=80&d=identicon,https://gitlab.com/SamriddhiPendhari,,2020-01-16
6398889,NITIN ZENDE,nitinzende,active,https://secure.gravatar.com/avatar/6e29b6512685e99f6546dede658526fe?s=80&d=identicon,https://gitlab.com/nitinzende,,2020-08-14
6795241,veena bhat,veenagit,active,https://secure.gravatar.com/avatar/bb3dab9fd1be1f9a46efbffb831cd51a?s=80&d=identicon,https://gitlab.com/veenagit,,2020-09-10
6412489,Venkata Potturi,vpotturi,active,https://secure.gravatar.com/avatar/3882eab89c80bf10eea330898733879a?s=80&d=identicon,https://gitlab.com/vpotturi,,2020-09-16
6194004,Naresh Dussa,ndussa,active,https://secure.gravatar.com/avatar/bee090c49701299e9355ecf43e836b9a?s=80&d=identicon,https://gitlab.com/ndussa,,2020-10-13
6554895,Hariharasubramaniyam Rajapandian,Hariharasubramaniyam,active,https://secure.gravatar.com/avatar/8643f2269de957b72cc2be6658fcd598?s=80&d=identicon,https://gitlab.com/Hariharasubramaniyam,,2020-10-29
6414289,Arosh Perera,aroshperera,active,https://assets.gitlab-static.net/uploads/-/system/user/avatar/6414289/avatar.png,https://gitlab.com/aroshperera,,2020-10-29
6601595,Dulmi Madushani,dmadushani,active,https://secure.gravatar.com/avatar/76e4b51bf8c53c45ab33b457a942d561?s=80&d=identicon,https://gitlab.com/dmadushani,,2020-10-29
6601239,Shavik Gunarathne,sgunarathne,active,https://secure.gravatar.com/avatar/4ef2d3e381ed3d42a44ffd00663718fd?s=80&d=identicon,https://gitlab.com/sgunarathne,,2020-11-12
4628181,Ben Unger,ungerb1,active,https://secure.gravatar.com/avatar/a52b03fd89ff1252c4b2bffac8f65d5e?s=80&d=identicon,https://gitlab.com/ungerb1,,2020-11-20
7712403,Chris Watson,cwatsonAB,active,https://secure.gravatar.com/avatar/016fef4379cfbd30613fb78626e95c6e?s=80&d=identicon,https://gitlab.com/cwatsonAB,,2020-12-07
7183286,Ankit Jain,ankitjain1,active,https://secure.gravatar.com/avatar/172b5657c5648d5b5825218181651729?s=80&d=identicon,https://gitlab.com/ankitjain1,,2020-11-27
7755678,Sundar Bramanayagam,sundar.abacus,active,https://secure.gravatar.com/avatar/61a7adcb4ce486885c86f0813d10856b?s=80&d=identicon,https://gitlab.com/sundar.abacus,,2020-12-02
6663774,Srikanth Jasti,sjasti5,active,https://secure.gravatar.com/avatar/7cc227617d41ec6ffda64e4908042c15?s=80&d=identicon,https://gitlab.com/sjasti5,,2020-12-04
